District,Birth Rate,Death Rate,Infant Death Rate
Thiruvanathapuram,11.09,12.42,8.57
Kollam,8.97,10.29,1.38
Pathanamthitta,10.95,12.96,2.99
Alappuzha,8,10.31,2.84
Kottayam,10.24,12.86,7.76
Idukki,9.97,8.09,2.21
Ernakulam,8.45,8.68,5.83
Thrissur,11.71,11.51,6.24
Palakkad,10.77,8.73,2.12
Malappuram,18.44,6.26,3.04
Kozhikode,13.39,10.54,11.31
Wayanad,14.43,6.78,3.23
Kannur,13.36,9.3,4.46
Kasaragode,12.92,6.65,2.98